# HTTP Cookie File downloaded with cookies.txt by Genuinous @genuinous
# This file can be used by wget, curl, aria2c and other standard compliant tools.
# Usage Examples:
#   1) wget -x --load-cookies cookies.txt "https://spankbang.com/s/dorcel/"
#   2) curl --cookie cookies.txt "https://spankbang.com/s/dorcel/"
#   3) aria2c --load-cookies cookies.txt "https://spankbang.com/s/dorcel/"
#
.spankbang.xxx	TRUE	/	TRUE	2145913200	smtid	e37c30c3-461c-4360-b40a-b2d735638cf1G0101553866480
.spankbang.xxx	TRUE	/	TRUE	2145913200	smeid	02812c8d-3254-4440-8311-54fbc2b17515G0101553866480
.spankbang.com	TRUE	/	FALSE	1615455240	auth	IjEyOTAxNDA6OjpncmlsbGlhdG9yIg.pXu-dpqN8gi4jibmmJdZsHW_B4A
.spankbang.com	TRUE	/	TRUE	1584273497	ana_sid	df74dad97d8183e53ed1f8288d96fb6d2b9c62cd32c09a10dce8e6923201fbf6
.spankbang.com	TRUE	/	TRUE	1615805897	ana_vid	5db85b9564b8dbf1dc1d5ccaccec0df72c32942438e65765a3a1518892455528
#HttpOnly_.spankbang.com	TRUE	/	TRUE	1587395646	__cfduid	db1f86da8b61ebfd294282f413bf3190a1584803646
#HttpOnly_.spankbang.com	TRUE	/	TRUE	1587482457	sb_session	.eJwVy0EKgCAQQNG7zLqFiUV6h84Q6syARBo2ERHdPVv-D--BZae6-UxZwEk9qYNYziz1BgfzDC2PyouUlXI72qjJTkbZQNyjRhN6PURkq3BUOg6R0QfvuTnCJKn86Lrg_QAekCGE.XnYw2Q.FsjrT-jNL0r02M6oPS914dVjIbQ
#HttpOnly_.spankbang.com	TRUE	/	TRUE	1585063257	backend_version	master
.porntrex.com	TRUE	/	FALSE	1583846399	kt_referer	https%3A%2F%2Fstatics.cdntrex.com%2Fsearch%2F%3Fq%3Dexploited%2Bcollege
www.porntrex.com	FALSE	/tags/siterip/	FALSE	1583764649	pnState	{"impressions":1}
.porntrex.com	TRUE	/	FALSE	1590167250	kt_member	c018bd4e34f1823328d74422567ed53b
www.porntrex.com	FALSE	/	FALSE	1587575254	href_link	1
.porntrex.com	TRUE	/	FALSE	1587662349	kt_qparams	id%3D1001414%26dir%3Dfakings-alvaro-diamond
.porntrex.com	TRUE	/	FALSE	1587662349	kt_ips	69.160.26.118
www.porntrex.com	FALSE	/	FALSE	1588180751	kt_tcookie	1
#HttpOnly_serakon.com	FALSE	/	FALSE	1619117534	dle_user_id	17341
#HttpOnly_serakon.com	FALSE	/	FALSE	1619117534	dle_password	b12965824a8a5ba874a4072945d42871
#HttpOnly_serakon.com	FALSE	/	FALSE	1619117534	dle_newpm	0
